;; script uuid = 5e2f5bfc-3b4e-11e4-877d-0023543744f0
;; estimated script runtime 1:12:21

SCRIPT START
REALTIME(32)
LIVETIME(30)

;; 0 of 95
MPA3 CLEAR
DATA_INFO(A1 SC1 plateID 931 1 of 95 source 5e2f5bfc-3b4e-11e4-877d-0023543744f0,Sintsov,2014-09-13 18:00:50.127516,,,,,,,,)
MM(6.343,4.231)
MPA3 START
WAIT FOR MPA3
MPA3 STORE()

;; 1 of 95
MPA3 CLEAR
DATA_INFO(A2 SC1 plateID 931 2 of 95 source 5e2f5bfc-3b4e-11e4-877d-0023543744f0,Sintsov,2014-09-13 18:00:50.127516,,,,,,,,)
MM(15.153,4.349)
MPA3 START
WAIT FOR MPA3
MPA3 STORE()

;; 2 of 95
MPA3 CLEAR
DATA_INFO(A3 SC1 plateID 931 3 of 95 source 5e2f5bfc-3b4e-11e4-877d-0023543744f0,Sintsov,2014-09-13 18:00:50.127516,,,,,,,,)
MM(24.323,4.251)
MPA3 START
WAIT FOR MPA3
MPA3 STORE()

;; 3 of 95
MPA3 CLEAR
DATA_INFO(A4 SC1 plateID 931 4 of 95 source 5e2f5bfc-3b4e-11e4-877d-0023543744f0,Sintsov,2014-09-13 18:00:50.127516,,,,,,,,)
MM(33.275,4.462)
MPA3 START
WAIT FOR MPA3
MPA3 STORE()

;; 4 of 95
MPA3 CLEAR
DATA_INFO(A5 SC1 plateID 931 5 of 95 source 5e2f5bfc-3b4e-11e4-877d-0023543744f0,Sintsov,2014-09-13 18:00:50.127516,,,,,,,,)
MM(42.216,4.686)
MPA3 START
WAIT FOR MPA3
MPA3 STORE()

;; 5 of 95
MPA3 CLEAR
DATA_INFO(A6 SC1 plateID 931 6 of 95 source 5e2f5bfc-3b4e-11e4-877d-0023543744f0,Sintsov,2014-09-13 18:00:50.127516,,,,,,,,)
MM(51.128,5.132)
MPA3 START
WAIT FOR MPA3
MPA3 STORE()

;; 6 of 95
MPA3 CLEAR
DATA_INFO(A7 SC1 plateID 931 7 of 95 source 5e2f5bfc-3b4e-11e4-877d-0023543744f0,Sintsov,2014-09-13 18:00:50.127516,,,,,,,,)
MM(60.264,4.902)
MPA3 START
WAIT FOR MPA3
MPA3 STORE()

;; 7 of 95
MPA3 CLEAR
DATA_INFO(A8 SC1 plateID 931 8 of 95 source 5e2f5bfc-3b4e-11e4-877d-0023543744f0,Sintsov,2014-09-13 18:00:50.127516,,,,,,,,)
MM(69.707,5.542)
MPA3 START
WAIT FOR MPA3
MPA3 STORE()

;; 8 of 95
MPA3 CLEAR
DATA_INFO(A9 SC1 plateID 931 9 of 95 source 5e2f5bfc-3b4e-11e4-877d-0023543744f0,Sintsov,2014-09-13 18:00:50.127516,,,,,,,,)
MM(78.110,5.298)
MPA3 START
WAIT FOR MPA3
MPA3 STORE()

;; 9 of 95
MPA3 CLEAR
DATA_INFO(A10 SC1 plateID 931 10 of 95 source 5e2f5bfc-3b4e-11e4-877d-0023543744f0,Sintsov,2014-09-13 18:00:50.127516,,,,,,,,)
MM(87.221,5.421)
MPA3 START
WAIT FOR MPA3
MPA3 STORE()

;; 10 of 95
MPA3 CLEAR
DATA_INFO(A11 SC1 plateID 931 11 of 95 source 5e2f5bfc-3b4e-11e4-877d-0023543744f0,Sintsov,2014-09-13 18:00:50.127516,,,,,,,,)
MM(96.044,5.457)
MPA3 START
WAIT FOR MPA3
MPA3 STORE()

;; 11 of 95
MPA3 CLEAR
DATA_INFO(A12 SC1 plateID 931 12 of 95 source 5e2f5bfc-3b4e-11e4-877d-0023543744f0,Sintsov,2014-09-13 18:00:50.127516,,,,,,,,)
MM(104.958,5.958)
MPA3 START
WAIT FOR MPA3
MPA3 STORE()

;; 12 of 95
MPA3 CLEAR
DATA_INFO(B12 SC1 plateID 931 13 of 95 source 5e2f5bfc-3b4e-11e4-877d-0023543744f0,Sintsov,2014-09-13 18:00:50.127516,,,,,,,,)
MM(104.793,14.705)
MPA3 START
WAIT FOR MPA3
MPA3 STORE()

;; 13 of 95
MPA3 CLEAR
DATA_INFO(B11 SC1 plateID 931 14 of 95 source 5e2f5bfc-3b4e-11e4-877d-0023543744f0,Sintsov,2014-09-13 18:00:50.127516,,,,,,,,)
MM(95.607,14.397)
MPA3 START
WAIT FOR MPA3
MPA3 STORE()

;; 14 of 95
MPA3 CLEAR
DATA_INFO(B10 SC1 plateID 931 15 of 95 source 5e2f5bfc-3b4e-11e4-877d-0023543744f0,Sintsov,2014-09-13 18:00:50.127516,,,,,,,,)
MM(87.018,14.442)
MPA3 START
WAIT FOR MPA3
MPA3 STORE()

;; 15 of 95
MPA3 CLEAR
DATA_INFO(B9 SC1 plateID 931 16 of 95 source 5e2f5bfc-3b4e-11e4-877d-0023543744f0,Sintsov,2014-09-13 18:00:50.127516,,,,,,,,)
MM(78.055,14.276)
MPA3 START
WAIT FOR MPA3
MPA3 STORE()

;; 16 of 95
MPA3 CLEAR
DATA_INFO(B8 SC1 plateID 931 17 of 95 source 5e2f5bfc-3b4e-11e4-877d-0023543744f0,Sintsov,2014-09-13 18:00:50.127516,,,,,,,,)
MM(69.198,13.913)
MPA3 START
WAIT FOR MPA3
MPA3 STORE()

;; 17 of 95
MPA3 CLEAR
DATA_INFO(B7 SC1 plateID 931 18 of 95 source 5e2f5bfc-3b4e-11e4-877d-0023543744f0,Sintsov,2014-09-13 18:00:50.127516,,,,,,,,)
MM(60.071,13.941)
MPA3 START
WAIT FOR MPA3
MPA3 STORE()

;; 18 of 95
MPA3 CLEAR
DATA_INFO(B6 SC1 plateID 931 19 of 95 source 5e2f5bfc-3b4e-11e4-877d-0023543744f0,Sintsov,2014-09-13 18:00:50.127516,,,,,,,,)
MM(51.032,13.755)
MPA3 START
WAIT FOR MPA3
MPA3 STORE()

;; 19 of 95
MPA3 CLEAR
DATA_INFO(B5 SC1 plateID 931 20 of 95 source 5e2f5bfc-3b4e-11e4-877d-0023543744f0,Sintsov,2014-09-13 18:00:50.127516,,,,,,,,)
MM(42.079,13.680)
MPA3 START
WAIT FOR MPA3
MPA3 STORE()

;; 20 of 95
MPA3 CLEAR
DATA_INFO(B4 SC1 plateID 931 21 of 95 source 5e2f5bfc-3b4e-11e4-877d-0023543744f0,Sintsov,2014-09-13 18:00:50.127516,,,,,,,,)
MM(33.083,13.504)
MPA3 START
WAIT FOR MPA3
MPA3 STORE()

;; 21 of 95
MPA3 CLEAR
DATA_INFO(B3 SC1 plateID 931 22 of 95 source 5e2f5bfc-3b4e-11e4-877d-0023543744f0,Sintsov,2014-09-13 18:00:50.127516,,,,,,,,)
MM(24.127,13.236)
MPA3 START
WAIT FOR MPA3
MPA3 STORE()

;; 22 of 95
MPA3 CLEAR
DATA_INFO(B2 SC1 plateID 931 23 of 95 source 5e2f5bfc-3b4e-11e4-877d-0023543744f0,Sintsov,2014-09-13 18:00:50.127516,,,,,,,,)
MM(15.582,13.338)
MPA3 START
WAIT FOR MPA3
MPA3 STORE()

;; 23 of 95
MPA3 CLEAR
DATA_INFO(B1 SC1 plateID 931 24 of 95 source 5e2f5bfc-3b4e-11e4-877d-0023543744f0,Sintsov,2014-09-13 18:00:50.127516,,,,,,,,)
MM(5.032,13.199)
MPA3 START
WAIT FOR MPA3
MPA3 STORE()

;; 24 of 95
MPA3 CLEAR
DATA_INFO(C1 SC1 plateID 931 25 of 95 source 5e2f5bfc-3b4e-11e4-877d-0023543744f0,Sintsov,2014-09-13 18:00:50.127516,,,,,,,,)
MM(5.969,22.100)
MPA3 START
WAIT FOR MPA3
MPA3 STORE()

;; 25 of 95
MPA3 CLEAR
DATA_INFO(C2 SC1 plateID 931 26 of 95 source 5e2f5bfc-3b4e-11e4-877d-0023543744f0,Sintsov,2014-09-13 18:00:50.127516,,,,,,,,)
MM(15.369,22.117)
MPA3 START
WAIT FOR MPA3
MPA3 STORE()

;; 26 of 95
MPA3 CLEAR
DATA_INFO(C3 SC1 plateID 931 27 of 95 source 5e2f5bfc-3b4e-11e4-877d-0023543744f0,Sintsov,2014-09-13 18:00:50.127516,,,,,,,,)
MM(23.902,22.294)
MPA3 START
WAIT FOR MPA3
MPA3 STORE()

;; 27 of 95
MPA3 CLEAR
DATA_INFO(C4 SC1 plateID 931 28 of 95 source 5e2f5bfc-3b4e-11e4-877d-0023543744f0,Sintsov,2014-09-13 18:00:50.127516,,,,,,,,)
MM(32.828,22.595)
MPA3 START
WAIT FOR MPA3
MPA3 STORE()

;; 28 of 95
MPA3 CLEAR
DATA_INFO(C5 SC1 plateID 931 29 of 95 source 5e2f5bfc-3b4e-11e4-877d-0023543744f0,Sintsov,2014-09-13 18:00:50.127516,,,,,,,,)
MM(40.811,22.546)
MPA3 START
WAIT FOR MPA3
MPA3 STORE()

;; 29 of 95
MPA3 CLEAR
DATA_INFO(C6 SC1 plateID 931 30 of 95 source 5e2f5bfc-3b4e-11e4-877d-0023543744f0,Sintsov,2014-09-13 18:00:50.127516,,,,,,,,)
MM(50.812,22.809)
MPA3 START
WAIT FOR MPA3
MPA3 STORE()

;; 30 of 95
MPA3 CLEAR
DATA_INFO(C7 SC1 plateID 931 31 of 95 source 5e2f5bfc-3b4e-11e4-877d-0023543744f0,Sintsov,2014-09-13 18:00:50.127516,,,,,,,,)
MM(59.855,22.848)
MPA3 START
WAIT FOR MPA3
MPA3 STORE()

;; 31 of 95
MPA3 CLEAR
DATA_INFO(C8 SC1 plateID 931 32 of 95 source 5e2f5bfc-3b4e-11e4-877d-0023543744f0,Sintsov,2014-09-13 18:00:50.127516,,,,,,,,)
MM(68.797,23.070)
MPA3 START
WAIT FOR MPA3
MPA3 STORE()

;; 32 of 95
MPA3 CLEAR
DATA_INFO(C9 SC1 plateID 931 33 of 95 source 5e2f5bfc-3b4e-11e4-877d-0023543744f0,Sintsov,2014-09-13 18:00:50.127516,,,,,,,,)
MM(77.894,23.330)
MPA3 START
WAIT FOR MPA3
MPA3 STORE()

;; 33 of 95
MPA3 CLEAR
DATA_INFO(C10 SC1 plateID 931 34 of 95 source 5e2f5bfc-3b4e-11e4-877d-0023543744f0,Sintsov,2014-09-13 18:00:50.127516,,,,,,,,)
MM(86.890,23.512)
MPA3 START
WAIT FOR MPA3
MPA3 STORE()

;; 34 of 95
MPA3 CLEAR
DATA_INFO(C11 SC1 plateID 931 35 of 95 source 5e2f5bfc-3b4e-11e4-877d-0023543744f0,Sintsov,2014-09-13 18:00:50.127516,,,,,,,,)
MM(95.761,23.550)
MPA3 START
WAIT FOR MPA3
MPA3 STORE()

;; 35 of 95
MPA3 CLEAR
DATA_INFO(C12 SC1 plateID 931 36 of 95 source 5e2f5bfc-3b4e-11e4-877d-0023543744f0,Sintsov,2014-09-13 18:00:50.127516,,,,,,,,)
MM(104.713,23.691)
MPA3 START
WAIT FOR MPA3
MPA3 STORE()

;; 36 of 95
MPA3 CLEAR
DATA_INFO(D12 SC1 plateID 931 37 of 95 source 5e2f5bfc-3b4e-11e4-877d-0023543744f0,Sintsov,2014-09-13 18:00:50.127516,,,,,,,,)
MM(104.437,32.823)
MPA3 START
WAIT FOR MPA3
MPA3 STORE()

;; 37 of 95
MPA3 CLEAR
DATA_INFO(D11 SC1 plateID 931 38 of 95 source 5e2f5bfc-3b4e-11e4-877d-0023543744f0,Sintsov,2014-09-13 18:00:50.127516,,,,,,,,)
MM(95.368,32.429)
MPA3 START
WAIT FOR MPA3
MPA3 STORE()

;; 38 of 95
MPA3 CLEAR
DATA_INFO(D10 SC1 plateID 931 39 of 95 source 5e2f5bfc-3b4e-11e4-877d-0023543744f0,Sintsov,2014-09-13 18:00:50.127516,,,,,,,,)
MM(86.617,32.509)
MPA3 START
WAIT FOR MPA3
MPA3 STORE()

;; 39 of 95
MPA3 CLEAR
DATA_INFO(D9 SC1 plateID 931 40 of 95 source 5e2f5bfc-3b4e-11e4-877d-0023543744f0,Sintsov,2014-09-13 18:00:50.127516,,,,,,,,)
MM(78.296,32.263)
MPA3 START
WAIT FOR MPA3
MPA3 STORE()

;; 40 of 95
MPA3 CLEAR
DATA_INFO(D8 SC1 plateID 931 41 of 95 source 5e2f5bfc-3b4e-11e4-877d-0023543744f0,Sintsov,2014-09-13 18:00:50.127516,,,,,,,,)
MM(68.371,31.801)
MPA3 START
WAIT FOR MPA3
MPA3 STORE()

;; 41 of 95
MPA3 CLEAR
DATA_INFO(D7 SC1 plateID 931 42 of 95 source 5e2f5bfc-3b4e-11e4-877d-0023543744f0,Sintsov,2014-09-13 18:00:50.127516,,,,,,,,)
MM(59.732,31.996)
MPA3 START
WAIT FOR MPA3
MPA3 STORE()

;; 42 of 95
MPA3 CLEAR
DATA_INFO(D6 SC1 plateID 931 43 of 95 source 5e2f5bfc-3b4e-11e4-877d-0023543744f0,Sintsov,2014-09-13 18:00:50.127516,,,,,,,,)
MM(50.679,31.820)
MPA3 START
WAIT FOR MPA3
MPA3 STORE()

;; 43 of 95
MPA3 CLEAR
DATA_INFO(D5 SC1 plateID 931 44 of 95 source 5e2f5bfc-3b4e-11e4-877d-0023543744f0,Sintsov,2014-09-13 18:00:50.127516,,,,,,,,)
MM(41.878,31.656)
MPA3 START
WAIT FOR MPA3
MPA3 STORE()

;; 44 of 95
MPA3 CLEAR
DATA_INFO(D4 SC1 plateID 931 45 of 95 source 5e2f5bfc-3b4e-11e4-877d-0023543744f0,Sintsov,2014-09-13 18:00:50.127516,,,,,,,,)
MM(32.693,31.498)
MPA3 START
WAIT FOR MPA3
MPA3 STORE()

;; 45 of 95
MPA3 CLEAR
DATA_INFO(D3 SC1 plateID 931 46 of 95 source 5e2f5bfc-3b4e-11e4-877d-0023543744f0,Sintsov,2014-09-13 18:00:50.127516,,,,,,,,)
MM(24.544,30.882)
MPA3 START
WAIT FOR MPA3
MPA3 STORE()

;; 46 of 95
MPA3 CLEAR
DATA_INFO(D2 SC1 plateID 931 47 of 95 source 5e2f5bfc-3b4e-11e4-877d-0023543744f0,Sintsov,2014-09-13 18:00:50.127516,,,,,,,,)
MM(14.693,31.207)
MPA3 START
WAIT FOR MPA3
MPA3 STORE()

;; 47 of 95
MPA3 CLEAR
DATA_INFO(D1 SC1 plateID 931 48 of 95 source 5e2f5bfc-3b4e-11e4-877d-0023543744f0,Sintsov,2014-09-13 18:00:50.127516,,,,,,,,)
MM(5.948,31.188)
MPA3 START
WAIT FOR MPA3
MPA3 STORE()

;; 48 of 95
MPA3 CLEAR
DATA_INFO(E1 SC1 plateID 931 49 of 95 source 5e2f5bfc-3b4e-11e4-877d-0023543744f0,Sintsov,2014-09-13 18:00:50.127516,,,,,,,,)
MM(5.522,40.231)
MPA3 START
WAIT FOR MPA3
MPA3 STORE()

;; 49 of 95
MPA3 CLEAR
DATA_INFO(E2 SC1 plateID 931 50 of 95 source 5e2f5bfc-3b4e-11e4-877d-0023543744f0,Sintsov,2014-09-13 18:00:50.127516,,,,,,,,)
MM(14.667,40.216)
MPA3 START
WAIT FOR MPA3
MPA3 STORE()

;; 50 of 95
MPA3 CLEAR
DATA_INFO(E3 SC1 plateID 931 51 of 95 source 5e2f5bfc-3b4e-11e4-877d-0023543744f0,Sintsov,2014-09-13 18:00:50.127516,,,,,,,,)
MM(23.660,40.222)
MPA3 START
WAIT FOR MPA3
MPA3 STORE()

;; 51 of 95
MPA3 CLEAR
DATA_INFO(E4 SC1 plateID 931 52 of 95 source 5e2f5bfc-3b4e-11e4-877d-0023543744f0,Sintsov,2014-09-13 18:00:50.127516,,,,,,,,)
MM(32.526,40.601)
MPA3 START
WAIT FOR MPA3
MPA3 STORE()

;; 52 of 95
MPA3 CLEAR
DATA_INFO(E5 SC1 plateID 931 53 of 95 source 5e2f5bfc-3b4e-11e4-877d-0023543744f0,Sintsov,2014-09-13 18:00:50.127516,,,,,,,,)
MM(41.555,40.710)
MPA3 START
WAIT FOR MPA3
MPA3 STORE()

;; 53 of 95
MPA3 CLEAR
DATA_INFO(E6 SC1 plateID 931 54 of 95 source 5e2f5bfc-3b4e-11e4-877d-0023543744f0,Sintsov,2014-09-13 18:00:50.127516,,,,,,,,)
MM(50.572,40.875)
MPA3 START
WAIT FOR MPA3
MPA3 STORE()

;; 54 of 95
MPA3 CLEAR
DATA_INFO(E7 SC1 plateID 931 55 of 95 source 5e2f5bfc-3b4e-11e4-877d-0023543744f0,Sintsov,2014-09-13 18:00:50.127516,,,,,,,,)
MM(59.376,41.084)
MPA3 START
WAIT FOR MPA3
MPA3 STORE()

;; 55 of 95
MPA3 CLEAR
DATA_INFO(E8 SC1 plateID 931 56 of 95 source 5e2f5bfc-3b4e-11e4-877d-0023543744f0,Sintsov,2014-09-13 18:00:50.127516,,,,,,,,)
MM(68.441,41.213)
MPA3 START
WAIT FOR MPA3
MPA3 STORE()

;; 56 of 95
MPA3 CLEAR
DATA_INFO(E9 SC1 plateID 931 57 of 95 source 5e2f5bfc-3b4e-11e4-877d-0023543744f0,Sintsov,2014-09-13 18:00:50.127516,,,,,,,,)
MM(77.496,41.297)
MPA3 START
WAIT FOR MPA3
MPA3 STORE()

;; 57 of 95
MPA3 CLEAR
DATA_INFO(E10 SC1 plateID 931 58 of 95 source 5e2f5bfc-3b4e-11e4-877d-0023543744f0,Sintsov,2014-09-13 18:00:50.127516,,,,,,,,)
MM(86.400,41.642)
MPA3 START
WAIT FOR MPA3
MPA3 STORE()

;; 58 of 95
MPA3 CLEAR
DATA_INFO(E11 SC1 plateID 931 59 of 95 source 5e2f5bfc-3b4e-11e4-877d-0023543744f0,Sintsov,2014-09-13 18:00:50.127516,,,,,,,,)
MM(97.051,41.669)
MPA3 START
WAIT FOR MPA3
MPA3 STORE()

;; 59 of 95
MPA3 CLEAR
DATA_INFO(E12 SC1 plateID 931 60 of 95 source 5e2f5bfc-3b4e-11e4-877d-0023543744f0,Sintsov,2014-09-13 18:00:50.127516,,,,,,,,)
MM(104.395,41.802)
MPA3 START
WAIT FOR MPA3
MPA3 STORE()

;; 60 of 95
MPA3 CLEAR
DATA_INFO(F12 SC1 plateID 931 61 of 95 source 5e2f5bfc-3b4e-11e4-877d-0023543744f0,Sintsov,2014-09-13 18:00:50.127516,,,,,,,,)
MM(104.162,50.688)
MPA3 START
WAIT FOR MPA3
MPA3 STORE()

;; 61 of 95
MPA3 CLEAR
DATA_INFO(F11 SC1 plateID 931 62 of 95 source 5e2f5bfc-3b4e-11e4-877d-0023543744f0,Sintsov,2014-09-13 18:00:50.127516,,,,,,,,)
MM(95.212,50.909)
MPA3 START
WAIT FOR MPA3
MPA3 STORE()

;; 62 of 95
MPA3 CLEAR
DATA_INFO(F10 SC1 plateID 931 63 of 95 source 5e2f5bfc-3b4e-11e4-877d-0023543744f0,Sintsov,2014-09-13 18:00:50.127516,,,,,,,,)
MM(86.336,50.526)
MPA3 START
WAIT FOR MPA3
MPA3 STORE()

;; 63 of 95
MPA3 CLEAR
DATA_INFO(F9 SC1 plateID 931 64 of 95 source 5e2f5bfc-3b4e-11e4-877d-0023543744f0,Sintsov,2014-09-13 18:00:50.127516,,,,,,,,)
MM(77.316,50.350)
MPA3 START
WAIT FOR MPA3
MPA3 STORE()

;; 64 of 95
MPA3 CLEAR
DATA_INFO(F8 SC1 plateID 931 65 of 95 source 5e2f5bfc-3b4e-11e4-877d-0023543744f0,Sintsov,2014-09-13 18:00:50.127516,,,,,,,,)
MM(68.285,50.031)
MPA3 START
WAIT FOR MPA3
MPA3 STORE()

;; 65 of 95
MPA3 CLEAR
DATA_INFO(F6 SC1 plateID 931 66 of 95 source 5e2f5bfc-3b4e-11e4-877d-0023543744f0,Sintsov,2014-09-13 18:00:50.127516,,,,,,,,)
MM(50.281,49.860)
MPA3 START
WAIT FOR MPA3
MPA3 STORE()

;; 66 of 95
MPA3 CLEAR
DATA_INFO(F5 SC1 plateID 931 67 of 95 source 5e2f5bfc-3b4e-11e4-877d-0023543744f0,Sintsov,2014-09-13 18:00:50.127516,,,,,,,,)
MM(41.504,49.626)
MPA3 START
WAIT FOR MPA3
MPA3 STORE()

;; 67 of 95
MPA3 CLEAR
DATA_INFO(F4 SC1 plateID 931 68 of 95 source 5e2f5bfc-3b4e-11e4-877d-0023543744f0,Sintsov,2014-09-13 18:00:50.127516,,,,,,,,)
MM(32.354,49.486)
MPA3 START
WAIT FOR MPA3
MPA3 STORE()

;; 68 of 95
MPA3 CLEAR
DATA_INFO(F3 SC1 plateID 931 69 of 95 source 5e2f5bfc-3b4e-11e4-877d-0023543744f0,Sintsov,2014-09-13 18:00:50.127516,,,,,,,,)
MM(23.384,49.217)
MPA3 START
WAIT FOR MPA3
MPA3 STORE()

;; 69 of 95
MPA3 CLEAR
DATA_INFO(F2 SC1 plateID 931 70 of 95 source 5e2f5bfc-3b4e-11e4-877d-0023543744f0,Sintsov,2014-09-13 18:00:50.127516,,,,,,,,)
MM(14.614,49.156)
MPA3 START
WAIT FOR MPA3
MPA3 STORE()

;; 70 of 95
MPA3 CLEAR
DATA_INFO(F1 SC1 plateID 931 71 of 95 source 5e2f5bfc-3b4e-11e4-877d-0023543744f0,Sintsov,2014-09-13 18:00:50.127516,,,,,,,,)
MM(5.374,49.082)
MPA3 START
WAIT FOR MPA3
MPA3 STORE()

;; 71 of 95
MPA3 CLEAR
DATA_INFO(G1 SC1 plateID 931 72 of 95 source 5e2f5bfc-3b4e-11e4-877d-0023543744f0,Sintsov,2014-09-13 18:00:50.127516,,,,,,,,)
MM(5.111,58.216)
MPA3 START
WAIT FOR MPA3
MPA3 STORE()

;; 72 of 95
MPA3 CLEAR
DATA_INFO(G2 SC1 plateID 931 73 of 95 source 5e2f5bfc-3b4e-11e4-877d-0023543744f0,Sintsov,2014-09-13 18:00:50.127516,,,,,,,,)
MM(14.261,58.291)
MPA3 START
WAIT FOR MPA3
MPA3 STORE()

;; 73 of 95
MPA3 CLEAR
DATA_INFO(G3 SC1 plateID 931 74 of 95 source 5e2f5bfc-3b4e-11e4-877d-0023543744f0,Sintsov,2014-09-13 18:00:50.127516,,,,,,,,)
MM(23.363,58.297)
MPA3 START
WAIT FOR MPA3
MPA3 STORE()

;; 74 of 95
MPA3 CLEAR
DATA_INFO(G4 SC1 plateID 931 75 of 95 source 5e2f5bfc-3b4e-11e4-877d-0023543744f0,Sintsov,2014-09-13 18:00:50.127516,,,,,,,,)
MM(32.184,58.529)
MPA3 START
WAIT FOR MPA3
MPA3 STORE()

;; 75 of 95
MPA3 CLEAR
DATA_INFO(G5 SC1 plateID 931 76 of 95 source 5e2f5bfc-3b4e-11e4-877d-0023543744f0,Sintsov,2014-09-13 18:00:50.127516,,,,,,,,)
MM(41.286,58.568)
MPA3 START
WAIT FOR MPA3
MPA3 STORE()

;; 76 of 95
MPA3 CLEAR
DATA_INFO(G6 SC1 plateID 931 77 of 95 source 5e2f5bfc-3b4e-11e4-877d-0023543744f0,Sintsov,2014-09-13 18:00:50.127516,,,,,,,,)
MM(50.259,58.824)
MPA3 START
WAIT FOR MPA3
MPA3 STORE()

;; 77 of 95
MPA3 CLEAR
DATA_INFO(G7 SC1 plateID 931 78 of 95 source 5e2f5bfc-3b4e-11e4-877d-0023543744f0,Sintsov,2014-09-13 18:00:50.127516,,,,,,,,)
MM(59.292,58.831)
MPA3 START
WAIT FOR MPA3
MPA3 STORE()

;; 78 of 95
MPA3 CLEAR
DATA_INFO(G8 SC1 plateID 931 79 of 95 source 5e2f5bfc-3b4e-11e4-877d-0023543744f0,Sintsov,2014-09-13 18:00:50.127516,,,,,,,,)
MM(68.403,59.120)
MPA3 START
WAIT FOR MPA3
MPA3 STORE()

;; 79 of 95
MPA3 CLEAR
DATA_INFO(G9 SC1 plateID 931 80 of 95 source 5e2f5bfc-3b4e-11e4-877d-0023543744f0,Sintsov,2014-09-13 18:00:50.127516,,,,,,,,)
MM(77.147,59.238)
MPA3 START
WAIT FOR MPA3
MPA3 STORE()

;; 80 of 95
MPA3 CLEAR
DATA_INFO(G10 SC1 plateID 931 81 of 95 source 5e2f5bfc-3b4e-11e4-877d-0023543744f0,Sintsov,2014-09-13 18:00:50.127516,,,,,,,,)
MM(86.080,59.433)
MPA3 START
WAIT FOR MPA3
MPA3 STORE()

;; 81 of 95
MPA3 CLEAR
DATA_INFO(G11 SC1 plateID 931 82 of 95 source 5e2f5bfc-3b4e-11e4-877d-0023543744f0,Sintsov,2014-09-13 18:00:50.127516,,,,,,,,)
MM(95.014,59.641)
MPA3 START
WAIT FOR MPA3
MPA3 STORE()

;; 82 of 95
MPA3 CLEAR
DATA_INFO(G12 SC1 plateID 931 83 of 95 source 5e2f5bfc-3b4e-11e4-877d-0023543744f0,Sintsov,2014-09-13 18:00:50.127516,,,,,,,,)
MM(104.089,59.717)
MPA3 START
WAIT FOR MPA3
MPA3 STORE()

;; 83 of 95
MPA3 CLEAR
DATA_INFO(H12 SC1 plateID 931 84 of 95 source 5e2f5bfc-3b4e-11e4-877d-0023543744f0,Sintsov,2014-09-13 18:00:50.127516,,,,,,,,)
MM(103.888,68.751)
MPA3 START
WAIT FOR MPA3
MPA3 STORE()

;; 84 of 95
MPA3 CLEAR
DATA_INFO(H11 SC1 plateID 931 85 of 95 source 5e2f5bfc-3b4e-11e4-877d-0023543744f0,Sintsov,2014-09-13 18:00:50.127516,,,,,,,,)
MM(94.948,68.620)
MPA3 START
WAIT FOR MPA3
MPA3 STORE()

;; 85 of 95
MPA3 CLEAR
DATA_INFO(H10 SC1 plateID 931 86 of 95 source 5e2f5bfc-3b4e-11e4-877d-0023543744f0,Sintsov,2014-09-13 18:00:50.127516,,,,,,,,)
MM(85.911,68.499)
MPA3 START
WAIT FOR MPA3
MPA3 STORE()

;; 86 of 95
MPA3 CLEAR
DATA_INFO(H9 SC1 plateID 931 87 of 95 source 5e2f5bfc-3b4e-11e4-877d-0023543744f0,Sintsov,2014-09-13 18:00:50.127516,,,,,,,,)
MM(77.032,68.278)
MPA3 START
WAIT FOR MPA3
MPA3 STORE()

;; 87 of 95
MPA3 CLEAR
DATA_INFO(H8 SC1 plateID 931 88 of 95 source 5e2f5bfc-3b4e-11e4-877d-0023543744f0,Sintsov,2014-09-13 18:00:50.127516,,,,,,,,)
MM(68.092,68.153)
MPA3 START
WAIT FOR MPA3
MPA3 STORE()

;; 88 of 95
MPA3 CLEAR
DATA_INFO(H7 SC1 plateID 931 89 of 95 source 5e2f5bfc-3b4e-11e4-877d-0023543744f0,Sintsov,2014-09-13 18:00:50.127516,,,,,,,,)
MM(57.825,68.097)
MPA3 START
WAIT FOR MPA3
MPA3 STORE()

;; 89 of 95
MPA3 CLEAR
DATA_INFO(H6 SC1 plateID 931 90 of 95 source 5e2f5bfc-3b4e-11e4-877d-0023543744f0,Sintsov,2014-09-13 18:00:50.127516,,,,,,,,)
MM(49.911,68.545)
MPA3 START
WAIT FOR MPA3
MPA3 STORE()

;; 90 of 95
MPA3 CLEAR
DATA_INFO(H5 SC1 plateID 931 91 of 95 source 5e2f5bfc-3b4e-11e4-877d-0023543744f0,Sintsov,2014-09-13 18:00:50.127516,,,,,,,,)
MM(41.118,67.510)
MPA3 START
WAIT FOR MPA3
MPA3 STORE()

;; 91 of 95
MPA3 CLEAR
DATA_INFO(H4 SC1 plateID 931 92 of 95 source 5e2f5bfc-3b4e-11e4-877d-0023543744f0,Sintsov,2014-09-13 18:00:50.127516,,,,,,,,)
MM(32.105,67.584)
MPA3 START
WAIT FOR MPA3
MPA3 STORE()

;; 92 of 95
MPA3 CLEAR
DATA_INFO(H3 SC1 plateID 931 93 of 95 source 5e2f5bfc-3b4e-11e4-877d-0023543744f0,Sintsov,2014-09-13 18:00:50.127516,,,,,,,,)
MM(23.089,67.260)
MPA3 START
WAIT FOR MPA3
MPA3 STORE()

;; 93 of 95
MPA3 CLEAR
DATA_INFO(H2 SC1 plateID 931 94 of 95 source 5e2f5bfc-3b4e-11e4-877d-0023543744f0,Sintsov,2014-09-13 18:00:50.127516,,,,,,,,)
MM(14.168,67.172)
MPA3 START
WAIT FOR MPA3
MPA3 STORE()

;; 94 of 95
MPA3 CLEAR
DATA_INFO(H1 SC1 plateID 931 95 of 95 source 5e2f5bfc-3b4e-11e4-877d-0023543744f0,Sintsov,2014-09-13 18:00:50.127516,,,,,,,,)
MM(5.278,67.068)
MPA3 START
WAIT FOR MPA3
MPA3 STORE()

SCRIPT END