0.0805,0.0078843
0.081501,0.0074482
0.082502,0.00731
0.083503,0.0070765
0.084504,0.0073436
0.085505,0.0096136
0.086505,0.0071892
0.087506,0.0070347
0.088507,0.0068921
0.089508,0.0087172
0.090509,0.0069404
0.09151,0.00661
0.09251,0.0077118
0.093511,0.0079537
0.094512,0.0077528
0.095513,0.0083131
0.096514,0.0081845
0.097515,0.0060012
0.098515,0.007825
0.099516,0.0093231
0.10052,0.0095493
0.10152,0.0072684
0.10252,0.008815
0.10352,0.0072351
0.10452,0.0098572
0.10552,0.0056099
0.10652,0.0069266
0.10752,0.008456
0.10852,0.0078714
0.10952,0.0091006
0.11053,0.0076469
0.11153,0.0081553
0.11253,0.0076359
0.11353,0.0085626
0.11453,0.0079498
0.11553,0.0088173
0.11653,0.0066947
0.11753,0.0077715
0.11853,0.0079056
0.11953,0.0073257
0.12053,0.0081456
0.12153,0.0095786
0.12254,0.0068589
0.12354,0.0092196
0.12454,0.0078569
0.12554,0.0080739
0.12654,0.0073736
0.12754,0.0069592
0.12854,0.0082508
0.12954,0.0081817
0.13054,0.0080184
0.13154,0.0077914
0.13254,0.0083117
0.13354,0.0071015
0.13455,0.0078271
0.13555,0.0085412
0.13655,0.0072924
0.13755,0.0078628
0.13855,0.0077005
0.13955,0.0084954
0.14055,0.0072615
0.14155,0.0075843
0.14255,0.0095676
0.14355,0.0084465
0.14455,0.0077959
0.14555,0.0078358
0.14656,0.007214
0.14756,0.0075796
0.14856,0.0076209
0.14956,0.0092475
0.15056,0.0077216
0.15156,0.0067094
0.15256,0.006864
0.15356,0.0076026
0.15456,0.0073376
0.15556,0.0082565
0.15656,0.0080612
0.15756,0.0072892
0.15857,0.0096977
0.15957,0.0067899
0.16057,0.007138
0.16157,0.008412
0.16257,0.0074309
0.16357,0.0089541
0.16457,0.0078794
0.16557,0.0077564
0.16657,0.0063976
0.16757,0.0083919
0.16857,0.0077675
0.16957,0.0082135
0.17058,0.0086091
0.17158,0.0073904
0.17258,0.0091776
0.17358,0.0090759
0.17458,0.0075626
0.17558,0.0076715
0.17658,0.0089405
0.17758,0.0062605
0.17858,0.0071648
0.17958,0.0074078
0.18058,0.0082254
0.18158,0.0071767
0.18259,0.0084613
0.18359,0.0080118
0.18459,0.0082449
0.18559,0.0075135
0.18659,0.0068307
0.18759,0.0085402
0.18859,0.0073956
0.18959,0.0080434
0.19059,0.0078708
0.19159,0.0077314
0.19259,0.0082839
0.19359,0.0075741
0.1946,0.0067686
0.1956,0.0087072
0.1966,0.0080062
0.1976,0.0077435
0.1986,0.0083589
0.1996,0.0090021
0.2006,0.006865
0.2016,0.0063782
0.2026,0.0074889
0.2036,0.0079047
0.2046,0.008488
0.2056,0.0086992
0.20661,0.0093127
0.20761,0.0074345
0.20861,0.0081956
0.20961,0.0081109
0.21061,0.0081127
0.21161,0.0069475
0.21261,0.0070908
0.21361,0.0068995
0.21461,0.0071037
0.21561,0.0073998
0.21661,0.0072701
0.21761,0.0067311
0.21862,0.0068346
0.21962,0.0078301
0.22062,0.0085477
0.22162,0.007944
0.22262,0.0071923
0.22362,0.0077012
0.22462,0.0080391
0.22562,0.0084049
0.22662,0.0076247
0.22762,0.0077521
0.22862,0.0090531
0.22962,0.0078532
0.23063,0.0072503
0.23163,0.0069087
0.23263,0.0069534
0.23363,0.0073621
0.23463,0.0081357
0.23563,0.0073479
0.23663,0.0078975
0.23763,0.0081086
0.23863,0.0083747
0.23963,0.0072982
0.24063,0.0079247
0.24163,0.0082319
0.24264,0.007486
0.24364,0.0070832
0.24464,0.0078575
0.24564,0.0080018
0.24664,0.0083931
0.24764,0.0079089
0.24864,0.0080769
0.24964,0.0079982
0.25064,0.0078973
0.25164,0.007402
0.25264,0.0080555
0.25364,0.0070781
0.25465,0.0073716
0.25565,0.0075165
0.25665,0.0074725
0.25765,0.0076251
0.25865,0.0081113
0.25965,0.0071487
0.26065,0.0072839
0.26165,0.0077762
0.26265,0.0082529
0.26365,0.008281
0.26465,0.0082968
0.26565,0.0082572
0.26666,0.0078066
0.26766,0.0080375
0.26866,0.0078828
0.26966,0.0077786
0.27066,0.0074352
0.27166,0.0077899
0.27266,0.0076671
0.27366,0.0076817
0.27466,0.0085284
0.27566,0.007558
0.27666,0.0074514
0.27766,0.0087317
0.27867,0.0075833
0.27967,0.008841
0.28067,0.0077198
0.28167,0.0072636
0.28267,0.0069533
0.28367,0.0077468
0.28467,0.0074036
0.28567,0.0073302
0.28667,0.0073011
0.28767,0.0082511
0.28867,0.0072095
0.28967,0.0077915
0.29068,0.0083811
0.29168,0.0067369
0.29268,0.0077883
0.29368,0.0076682
0.29468,0.0075311
0.29568,0.0073748
0.29668,0.0067001
0.29768,0.0082198
0.29868,0.0079699
0.29968,0.0074567
0.30068,0.0072036
0.30168,0.0078011
0.30269,0.0080437
0.30369,0.0072606
0.30469,0.0074384
0.30569,0.0064902
0.30669,0.0076808
0.30769,0.0082994
0.30869,0.0069878
0.30969,0.0080994
0.31069,0.0069886
0.31169,0.0079245
0.31269,0.0078297
0.31369,0.0081838
0.3147,0.0073964
0.3157,0.0079364
0.3167,0.0074626
0.3177,0.0078198
0.3187,0.0073757
0.3197,0.0077636
0.3207,0.0079944
0.3217,0.0080967
0.3227,0.0081407
0.3237,0.0080765
0.3247,0.0081261
0.3257,0.0071299
0.32671,0.0073105
0.32771,0.0081021
0.32871,0.007889
0.32971,0.0079628
0.33071,0.009111
0.33171,0.0073489
0.33271,0.0079574
0.33371,0.0081766
0.33471,0.0086029
0.33571,0.0078725
0.33671,0.0078417
0.33771,0.0074234
0.33872,0.0080138
0.33972,0.0083933
0.34072,0.0077722
0.34172,0.007655
0.34272,0.0085623
0.34372,0.008077
0.34472,0.0079647
0.34572,0.0080337
0.34672,0.0072939
0.34772,0.0082638
0.34872,0.0076583
0.34972,0.0073873
0.35073,0.0069168
0.35173,0.0076367
0.35273,0.0084059
0.35373,0.0083501
0.35473,0.0075122
0.35573,0.0074383
0.35673,0.0073743
0.35773,0.0073146
0.35873,0.0072918
0.35973,0.0082396
0.36073,0.0078657
0.36173,0.0077427
0.36274,0.0076132
0.36374,0.0081072
0.36474,0.0078971
0.36574,0.0075959
0.36674,0.0076856
0.36774,0.0072848
0.36874,0.0089878
0.36974,0.0074233
0.37074,0.0080357
0.37174,0.0079637
0.37274,0.0077921
0.37374,0.009294
0.37475,0.0068175
0.37575,0.0074331
0.37675,0.0082951
0.37775,0.0074837
0.37875,0.0072926
0.37975,0.0076628
0.38075,0.007706
0.38175,0.0074286
0.38275,0.0085118
0.38375,0.0067819
0.38475,0.0080195
0.38575,0.0073821
0.38676,0.0078206
0.38776,0.0075268
0.38876,0.007055
0.38976,0.0074046
0.39076,0.008278
0.39176,0.0080898
0.39276,0.0082452
0.39376,0.0077558
0.39476,0.0079761
0.39576,0.0074435
0.39676,0.0072827
0.39776,0.0081329
0.39877,0.0079753
0.39977,0.0077481
0.40077,0.0082148
0.40177,0.0075744
0.40277,0.0079623
0.40377,0.0073979
0.40477,0.0075311
0.40577,0.0078802
0.40677,0.007375
0.40777,0.0067728
0.40877,0.0080121
0.40977,0.0072568
0.41078,0.008208
0.41178,0.0071861
0.41278,0.0077198
0.41378,0.0077203
0.41478,0.0068866
0.41578,0.0070835
0.41678,0.0076553
0.41778,0.0072312
0.41878,0.007166
0.41978,0.0077316
0.42078,0.0078517
0.42178,0.0078821
0.42279,0.0080294
0.42379,0.0072885
0.42479,0.0077759
0.42579,0.0080733
0.42679,0.007187
0.42779,0.0078658
0.42879,0.0080338
0.42979,0.0077704
0.43079,0.0081667
0.43179,0.0072401
0.43279,0.0080177
0.43379,0.0071264
0.4348,0.0084034
0.4358,0.008015
0.4368,0.007275
0.4378,0.0077406
0.4388,0.0073885
0.4398,0.0078367
0.4408,0.0078782
0.4418,0.0081151
0.4428,0.006945
0.4438,0.0086095
0.4448,0.0075562
0.4458,0.0082389
0.44681,0.0072712
0.44781,0.008018
0.44881,0.0077345
0.44981,0.0082046
0.45081,0.0073554
0.45181,0.0082694
0.45281,0.0074086
0.45381,0.0077415
0.45481,0.0079487
0.45581,0.0076892
0.45681,0.007617
0.45781,0.0078483
0.45882,0.0077901
0.45982,0.0084715
0.46082,0.0075427
0.46182,0.0081119
0.46282,0.0075302
0.46382,0.0081156
0.46482,0.008342
0.46582,0.0079738
0.46682,0.007963
0.46782,0.007371
0.46882,0.0076949
0.46982,0.0086788
0.47083,0.007682
0.47183,0.007568
0.47283,0.0074641
0.47383,0.0084075
0.47483,0.0075509
0.47583,0.0081649
0.47683,0.0078913
0.47783,0.0078178
0.47883,0.0072795
0.47983,0.0079258
0.48083,0.008065
0.48183,0.0073529
0.48284,0.0078182
0.48384,0.0084244
0.48484,0.0078269
0.48584,0.0079932
0.48684,0.0081117
0.48784,0.0070399
0.48884,0.0079416
0.48984,0.0083729
0.49084,0.0075944
0.49184,0.0076756
0.49284,0.0080697
0.49384,0.0079017
0.49485,0.0079154
0.49585,0.0077449
0.49685,0.0072988
0.49785,0.0073706
0.49885,0.0078682
0.49985,0.0082672
0.50085,0.007334
0.50185,0.0079908
0.50285,0.0078842
0.50385,0.0078282
0.50485,0.008005
0.50585,0.0074775
0.50686,0.0083837
0.50786,0.0074329
0.50886,0.0080484
0.50986,0.0078555
0.51086,0.007204
0.51186,0.0075031
0.51286,0.0078221
0.51386,0.0081374
0.51486,0.0075944
0.51586,0.0079716
0.51686,0.0076045
0.51786,0.0076535
0.51887,0.0078366
0.51987,0.0078273
0.52087,0.0080482
0.52187,0.0074575
0.52287,0.0074011
0.52387,0.0078865
0.52487,0.0079366
0.52587,0.0081237
0.52687,0.0076725
0.52787,0.0082498
0.52887,0.0080946
0.52987,0.0080545
0.53088,0.0076636
0.53188,0.0079144
0.53288,0.0083358
0.53388,0.0078287
0.53488,0.0081084
0.53588,0.008174
0.53688,0.0078925
0.53788,0.007864
0.53888,0.0082529
0.53988,0.0075968
0.54088,0.0076867
0.54188,0.0077835
0.54289,0.0080895
0.54389,0.0081378
0.54489,0.0080751
0.54589,0.0076409
0.54689,0.0083512
0.54789,0.0073294
0.54889,0.0083014
0.54989,0.0077794
0.55089,0.0077836
0.55189,0.007973
0.55289,0.0081321
0.55389,0.0074263
0.5549,0.0080898
0.5559,0.0080784
0.5569,0.0077706
0.5579,0.0084684
0.5589,0.0076035
0.5599,0.0077428
0.5609,0.0078542
0.5619,0.0077762
0.5629,0.0075939
0.5639,0.0078281
0.5649,0.008044
0.5659,0.008559
0.56691,0.0078364
0.56791,0.0079853
0.56891,0.0080132
0.56991,0.0078402
0.57091,0.0076066
0.57191,0.0086898
0.57291,0.0078718
0.57391,0.0089002
0.57491,0.0081513
0.57591,0.0080851
0.57691,0.0082782
0.57791,0.0083048
0.57892,0.007814
0.57992,0.0083318
0.58092,0.0079831
0.58192,0.0079304
0.58292,0.0077212
0.58392,0.0077015
0.58492,0.0079969
0.58592,0.0081555
0.58692,0.0079996
0.58792,0.0083132
0.58892,0.0074906
0.58992,0.0079097
0.59093,0.0084271
0.59193,0.0080754
0.59293,0.0081167
0.59393,0.0078284
0.59493,0.0087489
0.59593,0.0077765
0.59693,0.0080746
0.59793,0.0083958
0.59893,0.0077818
0.59993,0.0083818
0.60093,0.0082102
0.60193,0.0081102
0.60294,0.0077422
0.60394,0.008023
0.60494,0.008306
0.60594,0.0078573
0.60694,0.0071212
0.60794,0.0075289
0.60894,0.0091078
0.60994,0.0086645
0.61094,0.0085164
0.61194,0.008529
0.61294,0.008368
0.61394,0.008449
0.61495,0.0081194
0.61595,0.0082283
0.61695,0.0089161
0.61795,0.0085757
0.61895,0.007784
0.61995,0.0087319
0.62095,0.0078091
0.62195,0.0081061
0.62295,0.008514
0.62395,0.0082161
0.62495,0.0086518
0.62595,0.0080124
0.62696,0.0088438
0.62796,0.0084592
0.62896,0.0087742
0.62996,0.0084817
0.63096,0.0083064
0.63196,0.0088024
0.63296,0.008313
0.63396,0.0079819
0.63496,0.0084332
0.63596,0.0080744
0.63696,0.0084119
0.63796,0.0083047
0.63897,0.0079532
0.63997,0.0080082
0.64097,0.0086814
0.64197,0.0085903
0.64297,0.0084805
0.64397,0.0080046
0.64497,0.0083459
0.64597,0.0082866
0.64697,0.0088484
0.64797,0.0084572
0.64897,0.0080855
0.64997,0.0077091
0.65098,0.007986
0.65198,0.0077843
0.65298,0.0077171
0.65398,0.0082658
0.65498,0.0079392
0.65598,0.0086003
0.65698,0.0084709
0.65798,0.0081528
0.65898,0.0086954
0.65998,0.0081967
0.66098,0.0082951
0.66198,0.008029
0.66299,0.0082025
0.66399,0.0079024
0.66499,0.0082764
0.66599,0.0086637
0.66699,0.0081645
0.66799,0.0083283
0.66899,0.0085167
0.66999,0.0080627
0.67099,0.0082592
0.67199,0.0078994
0.67299,0.0084411
0.67399,0.0088194
0.675,0.0083528
0.676,0.0077075
0.677,0.0083511
0.678,0.0082781
0.679,0.0084862
0.68,0.0081534
0.681,0.0085384
0.682,0.0087285
0.683,0.0083017
0.684,0.0083742
0.685,0.0085842
0.68601,0.0081493
0.68701,0.0082757
0.68801,0.0088073
0.68901,0.0081969
0.69001,0.0086325
0.69101,0.0085882
0.69201,0.0085428
0.69301,0.0082215
0.69401,0.0085631
0.69501,0.0078805
0.69601,0.0082222
0.69701,0.0081298
0.69802,0.0085708
0.69902,0.0085315
0.70002,0.008662
0.70102,0.0084665
0.70202,0.0090556
0.70302,0.008255
0.70402,0.0083925
0.70502,0.0093344
0.70602,0.0085706
0.70702,0.0082818
0.70802,0.0087354
0.70902,0.0083273
0.71003,0.0088865
0.71103,0.008986
0.71203,0.0082617
0.71303,0.0088147
0.71403,0.0083333
0.71503,0.0079754
0.71603,0.0088375
0.71703,0.0084395
0.71803,0.0084362
0.71903,0.0082628
0.72003,0.008617
0.72103,0.0086667
0.72204,0.008542
0.72304,0.0082173
0.72404,0.0090583
0.72504,0.0086185
0.72604,0.0085002
0.72704,0.0085819
0.72804,0.0088434
0.72904,0.008719
0.73004,0.0081365
0.73104,0.008195
0.73204,0.0096263
0.73304,0.0086909
0.73405,0.0091532
0.73505,0.0085557
0.73605,0.0088011
0.73705,0.0085953
0.73805,0.008726
0.73905,0.0089592
0.74005,0.0090448
0.74105,0.0081185
0.74205,0.0089223
0.74305,0.0087721
0.74405,0.008428
0.74505,0.0090499
0.74606,0.0084938
0.74706,0.0087151
0.74806,0.0090806
0.74906,0.0088055
0.75006,0.0086604
0.75106,0.0083829
0.75206,0.0085653
0.75306,0.0089245
0.75406,0.008942
0.75506,0.0091335
0.75606,0.0087897
0.75706,0.0090788
0.75807,0.0095655
0.75907,0.0089271
0.76007,0.0085538
0.76107,0.0081134
0.76207,0.0088366
0.76307,0.0080492
0.76407,0.009179
0.76507,0.0092328
0.76607,0.008861
0.76707,0.009347
0.76807,0.0088176
0.76907,0.0087603
0.77008,0.0087474
0.77108,0.0095717
0.77208,0.0091269
0.77308,0.0087968
0.77408,0.0093236
0.77508,0.009167
0.77608,0.0091496
0.77708,0.0092104
0.77808,0.0089612
0.77908,0.0092244
0.78008,0.0088275
0.78108,0.0087742
0.78209,0.0092033
0.78309,0.0088281
0.78409,0.0090896
0.78509,0.0091893
0.78609,0.0090854
0.78709,0.0086837
0.78809,0.009213
0.78909,0.0088585
0.79009,0.0085767
0.79109,0.008647
0.79209,0.0094934
0.79309,0.0089047
0.7941,0.009145
0.7951,0.0088154
0.7961,0.0093397
0.7971,0.0089443
0.7981,0.0089601
0.7991,0.0094038
0.8001,0.0087337
0.8011,0.0089224
0.8021,0.0087185
0.8031,0.0086186
0.8041,0.0087465
0.8051,0.0089766
0.80611,0.0090992
0.80711,0.0091118
0.80811,0.0091657
0.80911,0.008652
0.81011,0.0091008
0.81111,0.0091972
0.81211,0.009548
0.81311,0.0089727
0.81411,0.0089678
0.81511,0.0088917
0.81611,0.0089506
0.81711,0.0089211
0.81812,0.0092815
0.81912,0.0092405
0.82012,0.0090673
0.82112,0.0085939
0.82212,0.0090131
0.82312,0.009305
0.82412,0.0094456
0.82512,0.009315
0.82612,0.0091136
0.82712,0.0097954
0.82812,0.0092517
0.82912,0.0096082
0.83013,0.0097467
0.83113,0.0091432
0.83213,0.0089764
0.83313,0.0092217
0.83413,0.010121
0.83513,0.0099109
0.83613,0.0091524
0.83713,0.0084983
0.83813,0.0098895
0.83913,0.0094202
0.84013,0.009264
0.84113,0.0088559
0.84214,0.0091196
0.84314,0.0097632
0.84414,0.0089705
0.84514,0.009329
0.84614,0.009219
0.84714,0.0096181
0.84814,0.0095827
0.84914,0.0097373
0.85014,0.009417
0.85114,0.0084896
0.85214,0.0093884
0.85314,0.009254
0.85415,0.0095679
0.85515,0.0093926
0.85615,0.0097442
0.85715,0.0096778
0.85815,0.0098365
0.85915,0.0093296
0.86015,0.0098803
0.86115,0.0092698
0.86215,0.0092953
0.86315,0.0093442
0.86415,0.0095465
0.86515,0.01036
0.86616,0.0095388
0.86716,0.0096164
0.86816,0.010068
0.86916,0.0097661
0.87016,0.0094159
0.87116,0.0095329
0.87216,0.0097094
0.87316,0.0093327
0.87416,0.0096532
0.87516,0.0095536
0.87616,0.0091244
0.87716,0.0096042
0.87817,0.0099699
0.87917,0.0095444
0.88017,0.009718
0.88117,0.0093277
0.88217,0.0093894
0.88317,0.0095077
0.88417,0.0096953
0.88517,0.0098035
0.88617,0.0092885
0.88717,0.0092372
0.88817,0.0098362
0.88917,0.0096713
0.89018,0.009394
0.89118,0.0095627
0.89218,0.0095963
0.89318,0.010207
0.89418,0.010144
0.89518,0.0097848
0.89618,0.0096341
0.89718,0.0096333
0.89818,0.009419
0.89918,0.0099691
0.90018,0.0099651
0.90118,0.0097245
0.90219,0.0092932
0.90319,0.0099522
0.90419,0.0092034
0.90519,0.0096514
0.90619,0.009907
0.90719,0.0091458
0.90819,0.0099524
0.90919,0.0096163
0.91019,0.010568
0.91119,0.0099241
0.91219,0.0093879
0.91319,0.009588
0.9142,0.0097422
0.9152,0.0094883
0.9162,0.0097671
0.9172,0.0095
0.9182,0.010127
0.9192,0.0098523
0.9202,0.0096531
0.9212,0.0096632
0.9222,0.010182
0.9232,0.009775
0.9242,0.0092782
0.9252,0.0096567
0.92621,0.010473
0.92721,0.010391
0.92821,0.0098623
0.92921,0.010134
0.93021,0.0095882
0.93121,0.009749
0.93221,0.0095168
0.93321,0.0098546
0.93421,0.0094228
0.93521,0.0099914
0.93621,0.010081
0.93721,0.0099488
0.93822,0.0096655
0.93922,0.009961
0.94022,0.0094783
0.94122,0.0093721
0.94222,0.0096823
0.94322,0.0096549
0.94422,0.010166
0.94522,0.0096802
0.94622,0.010403
0.94722,0.0097114
0.94822,0.0099724
0.94922,0.010678
0.95023,0.010267
0.95123,0.0099566
0.95223,0.010065
0.95323,0.0096834
0.95423,0.010413
0.95523,0.010427
0.95623,0.010362
0.95723,0.010449
0.95823,0.01086
0.95923,0.010334
0.96023,0.010126
0.96123,0.01008
0.96224,0.0099391
0.96324,0.010574
0.96424,0.010654
0.96524,0.010013
0.96624,0.010183
0.96724,0.0096027
0.96824,0.010009
0.96924,0.010414
0.97024,0.010326
0.97124,0.010276
0.97224,0.0099553
0.97324,0.0099045
0.97425,0.010561
0.97525,0.010471
0.97625,0.010414
0.97725,0.010437
0.97825,0.0099718
0.97925,0.010206
0.98025,0.010895
0.98125,0.010118
0.98225,0.010924
0.98325,0.010351
0.98425,0.010609
0.98525,0.010952
0.98626,0.010812
0.98726,0.010172
0.98826,0.010595
0.98926,0.010289
0.99026,0.010595
0.99126,0.010836
0.99226,0.010287
0.99326,0.010545
0.99426,0.011127
0.99526,0.010276
0.99626,0.010453
0.99726,0.010409
0.99827,0.010263
0.99927,0.010819
1.0003,0.010165
1.0013,0.010726
1.0023,0.010741
1.0033,0.010531
1.0043,0.01093
1.0053,0.011044
1.0063,0.010939
1.0073,0.010504
1.0083,0.010845
1.0093,0.010713
1.0103,0.01062
1.0113,0.010617
1.0123,0.010593
1.0133,0.011552
1.0143,0.011114
1.0153,0.01041
1.0163,0.011016
1.0173,0.010406
1.0183,0.010781
1.0193,0.010816
1.0203,0.010392
1.0213,0.011271
1.0223,0.010505
1.0233,0.01045
1.0243,0.011322
1.0253,0.011196
1.0263,0.011147
1.0273,0.01073
1.0283,0.010873
1.0293,0.010769
1.0303,0.011185
1.0313,0.010633
1.0323,0.010579
1.0333,0.010735
1.0343,0.010729
1.0353,0.010666
1.0363,0.010865
1.0373,0.010321
1.0383,0.011741
1.0393,0.011024
1.0403,0.010545
1.0413,0.011266
1.0423,0.011031
1.0433,0.011439
1.0443,0.010855
1.0453,0.010706
1.0463,0.010978
1.0473,0.011162
1.0483,0.011467
1.0493,0.010857
1.0503,0.011272
1.0513,0.011376
1.0523,0.011215
1.0533,0.011472
1.0543,0.011291
1.0553,0.011267
1.0563,0.011183
1.0573,0.011195
1.0583,0.010836
1.0593,0.011977
1.0603,0.011132
1.0613,0.011225
1.0623,0.010809
1.0633,0.010913
1.0643,0.011207
1.0653,0.01071
1.0663,0.011401
1.0673,0.011925
1.0683,0.011754
1.0693,0.01068
1.0703,0.011124
1.0713,0.011317
1.0723,0.011833
1.0733,0.011567
1.0743,0.011318
1.0753,0.01158
1.0763,0.011252
1.0773,0.011147
1.0783,0.011377
1.0793,0.01178
1.0803,0.01145
1.0813,0.011468
1.0823,0.01129
1.0833,0.011767
1.0843,0.011652
1.0853,0.011374
1.0863,0.011764
1.0873,0.011657
1.0883,0.011126
1.0893,0.011276
1.0903,0.011504
1.0913,0.011949
1.0923,0.011788
1.0933,0.011883
1.0943,0.012368
1.0953,0.011609
1.0963,0.011363
1.0973,0.011545
1.0983,0.011695
1.0993,0.012481
1.1004,0.011858
1.1014,0.011953
1.1024,0.01212
1.1034,0.012253
1.1044,0.011709
1.1054,0.01159
1.1064,0.011701
1.1074,0.012035
1.1084,0.012626
1.1094,0.011621
1.1104,0.011515
1.1114,0.011575
1.1124,0.011821
1.1134,0.011306
1.1144,0.011823
1.1154,0.012243
1.1164,0.011887
1.1174,0.011737
1.1184,0.011666
1.1194,0.011347
1.1204,0.012111
1.1214,0.011656
1.1224,0.011723
1.1234,0.01168
1.1244,0.012243
1.1254,0.012155
1.1264,0.012146
1.1274,0.012089
1.1284,0.01288
1.1294,0.012104
1.1304,0.012659
1.1314,0.012375
1.1324,0.012088
1.1334,0.011741
1.1344,0.01245
1.1354,0.012273
1.1364,0.01189
1.1374,0.011859
1.1384,0.012239
1.1394,0.011952
1.1404,0.012123
1.1414,0.012191
1.1424,0.013139
1.1434,0.012149
1.1444,0.01207
1.1454,0.012745
1.1464,0.012115
1.1474,0.012438
1.1484,0.012337
1.1494,0.012874
1.1504,0.01206
1.1514,0.011612
1.1524,0.012928
1.1534,0.012466
1.1544,0.011488
1.1554,0.012513
1.1564,0.012089
1.1574,0.013103
1.1584,0.012069
1.1594,0.011991
1.1604,0.012561
1.1614,0.012281
1.1624,0.012521
1.1634,0.012124
1.1644,0.012695
1.1654,0.012598
1.1664,0.012689
1.1674,0.012368
1.1684,0.012494
1.1694,0.012467
1.1704,0.013043
1.1714,0.01247
1.1724,0.012965
1.1734,0.012851
1.1744,0.012926
1.1754,0.012936
1.1764,0.012837
1.1774,0.013073
1.1784,0.013248
1.1794,0.013026
1.1804,0.012197
1.1814,0.012636
1.1824,0.012381
1.1834,0.013173
1.1844,0.012574
1.1854,0.013265
1.1864,0.01262
1.1874,0.012601
1.1884,0.012853
1.1894,0.012411
1.1904,0.012924
1.1914,0.012879
1.1924,0.012308
1.1934,0.01294
1.1944,0.013135
1.1954,0.012855
1.1964,0.01302
1.1974,0.01291
1.1984,0.012809
1.1994,0.013398
1.2004,0.012615
1.2014,0.013573
1.2024,0.013316
1.2034,0.013073
1.2044,0.013279
1.2054,0.013443
1.2064,0.013331
1.2074,0.013115
1.2084,0.012697
1.2094,0.013764
1.2104,0.012981
1.2114,0.013475
1.2124,0.013081
1.2134,0.01315
1.2144,0.013523
1.2154,0.012488
1.2164,0.01275
1.2174,0.013033
1.2184,0.013309
1.2194,0.013155
1.2205,0.013199
1.2215,0.012814
1.2225,0.013065
1.2235,0.012964
1.2245,0.013156
1.2255,0.013741
1.2265,0.013112
1.2275,0.013533
1.2285,0.013411
1.2295,0.013257
1.2305,0.013331
1.2315,0.01334
1.2325,0.013098
1.2335,0.013235
1.2345,0.013266
1.2355,0.013364
1.2365,0.013295
1.2375,0.01308
1.2385,0.013138
1.2395,0.013503
1.2405,0.01288
1.2415,0.012228
1.2425,0.013478
1.2435,0.012432
1.2445,0.012971
1.2455,0.013246
1.2465,0.012754
1.2475,0.012792
1.2485,0.012795
1.2495,0.013324
1.2505,0.01305
1.2515,0.01269
1.2525,0.012809
1.2535,0.012657
1.2545,0.012167
1.2555,0.012868
1.2565,0.012292
1.2575,0.012475
1.2585,0.012887
1.2595,0.012278
1.2605,0.012207
1.2615,0.012488
1.2625,0.012106
1.2635,0.012103
1.2645,0.01189
1.2655,0.012409
1.2665,0.011553
1.2675,0.01157
1.2685,0.011741
1.2695,0.01157
1.2705,0.011819
1.2715,0.011961
1.2725,0.011617
1.2735,0.01228
1.2745,0.011513
1.2755,0.01139
1.2765,0.011201
1.2775,0.011841
1.2785,0.011456
1.2795,0.010814
1.2805,0.011206
