                            OLS Regression Results                            
==============================================================================
Dep. Variable:                  68d-d   R-squared:                       0.712
Model:                            OLS   Adj. R-squared:                  0.700
Method:                 Least Squares   F-statistic:                     59.24
Date:                Fri, 12 Sep 2014   Prob (F-statistic):           2.09e-19
Time:                        18:06:45   Log-Likelihood:                -281.18
No. Observations:                  76   AIC:                             570.4
Df Residuals:                      72   BIC:                             579.7
Df Model:                           3                                         
==============================================================================
                 coef    std err          t      P>|t|      [95.0% Conf. Int.]
------------------------------------------------------------------------------
const         44.1248      9.366      4.711      0.000        25.453    62.797
Fraction      27.8697      2.913      9.566      0.000        22.062    33.678
OG             3.4818      0.378      9.217      0.000         2.729     4.235
salt         -26.0763      4.138     -6.302      0.000       -34.324   -17.828
==============================================================================
Omnibus:                        5.718   Durbin-Watson:                   1.188
Prob(Omnibus):                  0.057   Jarque-Bera (JB):                5.828
Skew:                           0.660   Prob(JB):                       0.0542
Kurtosis:                       2.683   Cond. No.                         75.1
==============================================================================




                            OLS Regression Results                            
==============================================================================
Dep. Variable:             Cryst 68 d   R-squared:                       0.419
Model:                            OLS   Adj. R-squared:                  0.395
Method:                 Least Squares   F-statistic:                     17.34
Date:                Fri, 12 Sep 2014   Prob (F-statistic):           1.42e-08
Time:                        18:06:45   Log-Likelihood:                -393.41
No. Observations:                  76   AIC:                             794.8
Df Residuals:                      72   BIC:                             804.1
Df Model:                           3                                         
==============================================================================
                 coef    std err          t      P>|t|      [95.0% Conf. Int.]
------------------------------------------------------------------------------
const          1.7439     41.011      0.043      0.966       -80.011    83.499
Fraction      25.0513     12.757      1.964      0.053        -0.379    50.481
OG            10.5292      1.654      6.366      0.000         7.232    13.826
salt         -67.7753     18.116     -3.741      0.000      -103.890   -31.661
==============================================================================
Omnibus:                        1.580   Durbin-Watson:                   1.558
Prob(Omnibus):                  0.454   Jarque-Bera (JB):                0.977
Skew:                           0.232   Prob(JB):                        0.614
Kurtosis:                       3.305   Cond. No.                         75.1
==============================================================================




                            OLS Regression Results                            
==============================================================================
Dep. Variable:            Cryst 274 d   R-squared:                       0.402
Model:                            OLS   Adj. R-squared:                  0.378
Method:                 Least Squares   F-statistic:                     16.16
Date:                Fri, 12 Sep 2014   Prob (F-statistic):           3.94e-08
Time:                        18:06:45   Log-Likelihood:                -400.23
No. Observations:                  76   AIC:                             808.5
Df Residuals:                      72   BIC:                             817.8
Df Model:                           3                                         
==============================================================================
                 coef    std err          t      P>|t|      [95.0% Conf. Int.]
------------------------------------------------------------------------------
const         39.4683     44.863      0.880      0.382       -49.964   128.900
Fraction      42.2423     13.955      3.027      0.003        14.424    70.060
OG             8.1679      1.809      4.515      0.000         4.561    11.775
salt        -103.9563     19.818     -5.246      0.000      -143.462   -64.450
==============================================================================
Omnibus:                       24.016   Durbin-Watson:                   1.642
Prob(Omnibus):                  0.000   Jarque-Bera (JB):               56.573
Skew:                           1.012   Prob(JB):                     5.19e-13
Kurtosis:                       6.711   Cond. No.                         75.1
==============================================================================




